contador/src/build/ContadorAscendente_tb.vcd
$date
	Thu Sep 05 21:50:23 2024
$end
$version
	Icarus Verilog
$end
$timescale
	1s
$end
$scope module ContadorAscendente_tb $end
$var wire 5 ! count_tb [4:0] $end
$var parameter 32 " Maximacuenta $end
$var reg 1 # clk_tb $end
$var reg 1 $ enable_tb $end
$var reg 1 % rst_tb $end
$scope module u_contador $end
$var wire 1 # clk $end
$var wire 5 & count [4:0] $end
$var wire 1 $ enable $end
$var wire 1 % rst $end
$var parameter 32 ' Maximacuenta $end
$var reg 5 ( counter [4:0] $end
$var reg 1 ) pulso $end
$upscope $end
$scope begin $ivl_for_loop0 $end
$var integer 32 * i [31:0] $end
$upscope $end
$upscope $end
$enddefinitions $end
$comment Show the parameter values. $end
$dumpall
b11100 '
b11100 "
$end
#0
$dumpvars
b1 *
0)
b0 (
b0 &
1%
1$
0#
b0 !
$end
#5
1#
#10
0#
b10 *
0%
#15
b1 !
b1 &
b1 (
1#
#20
0#
b11 *
#25
b10 !
b10 &
b10 (
1#
#30
0#
b100 *
#35
b11 !
b11 &
b11 (
1#
#40
0#
b101 *
#45
b100 !
b100 &
b100 (
1#
#50
0#
b110 *
#55
b101 !
b101 &
b101 (
1#
#60
0#
b111 *
#65
b110 !
b110 &
b110 (
1#
#70
0#
b1000 *
#75
b111 !
b111 &
b111 (
1#
#80
0#
b1001 *
#85
b1000 !
b1000 &
b1000 (
1#
#90
0#
b1010 *
#95
b1001 !
b1001 &
b1001 (
1#
#100
0#
b1011 *
#105
b1010 !
b1010 &
b1010 (
1#
#110
0#
b1100 *
#115
b1011 !
b1011 &
b1011 (
1#
#120
0#
b1101 *
#125
b1100 !
b1100 &
b1100 (
1#
#130
0#
b1110 *
#135
b1101 !
b1101 &
b1101 (
1#
#140
0#
b1111 *
#145
b1110 !
b1110 &
b1110 (
1#
#150
0#
b10000 *
#155
b1111 !
b1111 &
b1111 (
1#
#160
0#
b10001 *
#165
b10000 !
b10000 &
b10000 (
1#
#170
0#
b10010 *
#175
b10001 !
b10001 &
b10001 (
1#
#180
0#
b10011 *
#185
b10010 !
b10010 &
b10010 (
1#
#190
0#
b10100 *
#195
b10011 !
b10011 &
b10011 (
1#
#200
0#
b10101 *
#205
b10100 !
b10100 &
b10100 (
1#
#210
0#
b10110 *
#215
b10101 !
b10101 &
b10101 (
1#
#220
0#
b10111 *
#225
b10110 !
b10110 &
b10110 (
1#
#230
0#
b11000 *
#235
b10111 !
b10111 &
b10111 (
1#
#240
0#
b11001 *
#245
b11000 !
b11000 &
b11000 (
1#
#250
0#
b11010 *
#255
b11001 !
b11001 &
b11001 (
1#
#260
0#
b11011 *
#265
b11010 !
b11010 &
b11010 (
1#
#270
0#
b11100 *
#275
b11011 !
b11011 &
b11011 (
1#
#280
0#
b11101 *
#285
1)
b0 !
b0 &
b0 (
1#
#290
0#
#295
0)
b1 !
b1 &
b1 (
1#
#300
0#
#305
b10 !
b10 &
b10 (
1#
#310
0#
#315
b11 !
b11 &
b11 (
1#
#320
0#
#325
b100 !
b100 &
b100 (
1#
#330
0#
#335
b101 !
b101 &
b101 (
1#
#340
0#
#345
b110 !
b110 &
b110 (
1#
#350
0#
#355
b111 !
b111 &
b111 (
1#
#360
0#
#365
b1000 !
b1000 &
b1000 (
1#
#370
0#
#375
b1001 !
b1001 &
b1001 (
1#
